…
allegiances <- map(got_chars_named, "allegiances")
tibble::enframe(allegiances, value = "allegiances")
#> # A tibble: 30 × 2
#>    name               allegiances
#>    <chr>              <list>     
#>  1 Theon Greyjoy      <chr [1]>  
#>  2 Tyrion Lannister   <chr [1]>  
#>  3 Victarion Greyjoy  <chr [1]>  
#>  4 Will               <list [0]> 
#>  5 Areo Hotah         <chr [1]>  
#>  6 Chett              <list [0]> 
#>  7 Cressen            <list [0]> 
#>  8 Arianne Martell    <chr [1]>  
#>  9 Daenerys Targaryen <chr [1]>  
#> 10 Davos Seaworth     <chr [2]>  
#> # ℹ 20 more rows
…
